-56 528 -120 264
8 -32 -24 -48 160 -320 352
40 -96 16 -304 -96 -32 32 -24 -56 224
-80 -112 -16 -48 192 -240 256
-32 -16 -16 400 -8 480
-168 -368 -200 -16 -56 -40 -72 16
-96 -72 -80 -240 -160 -56 240
-40 -136 24 -56 -48 96 -208 328
-56 -296 -112 -24 120 -80 -72 176
-112 -8 -32 264 -256 -104 -64 96
-80 -40 336 -176 328
-16 -64 112 -48 -88 -48 -144 -136 272
-56 -48 368 -248 -40 192
-64 304 -32 40 -88 424
-32 -16 -32 96 -136 640
