-40 944
-40 -24 912
40 -24 912
-40 -24 912
72 -24 880
-48 -40 888
48 -40 888
48 -40 -80 800
-24 16 -40 -80 800
-24 16 -40 -80 -24 768
-24 64 -80 -24 768
-24 16 -40 -80 -800
-24 16 -40 -80 800
-24 16 -40 888
-24 960
992
-160 -32 -32 744
-160 72 -160 576
-160 -72 -160 576
